{"docs":[{"fairings":{"reused":null,"recovery_attempt":null,"recovered":null,"ships":[]},"links":{"patch":{"small":null,"large":null},"reddit":{"campaign":null,"launch":null,"media":null,"recovery":null},"flickr":{"small":[],"original":[]},"presskit":null,"webcast":null,"youtube_id":null,"article":null,"wikipedia":null},"static_fire_date_utc":null,"static_fire_date_unix":null,"net":false,"window":null,"rocket":"5e9d0d95eda69973a809d1ec","success":null,"failures":[],"details":null,"crew":[],"ships":[],"capsules":[],"payloads":["6175aaacefa4314085aa9c56"],"launchpad":"5e9e4501f509094ba4566f84","flight_number":145,"name":"Transporter-3","date_utc":"2022-01-13T15:25:00.000Z","date_unix":1642087500,"date_local":"2022-01-13T10:25:00-05:00","date_precision":"hour","upcoming":true,"cores":[{"core":null,"flight":null,"gridfins":null,"legs":null,"reused":null,"landing_attempt":null,"landing_success":null,"landing_type":null,"landpad":null}],"auto_update":true,"tbd":false,"launch_library_id":"c660df6f-7e33-4c90-a0f5-b27c8cb4c974","id":"61bf3e31cd5ab50b0d936345"}],"totalDocs":4,"offset":0,"limit":1,"totalPages":4,"page":1,"pagingCounter":1,"hasPrevPage":false,"hasNextPage":true,"prevPage":null,"nextPage":2}
